    * *  * *  * *  * *  * * *             * *  * *  * *  * *  * * *             * *  * *  * *  * *  * * *             * *  * *  * *  * *  * *  * *  * *  * *  * * *          
  *    *    *    *    *       *         *    *    *    *    *       *         *    *    *    *    *       *         *    *    *    *    *    *    *    *    *       * 
 5    5    5    7    *  DIAMD  *       5    5    5    6    *  GOLD   *       5    5    5    5    *  SILVR  *       1    1    1    1    1    1    2    3    *  LEATH  *
 *    *    *    *    *   -7-   *       *    *    *    *    *   -6-   *       *    *    *    *    *   -5-   *       *    *    *    *    *    *    *    *    *   -4-   *
  *    *    *    *    *       *         *    *    *    *    *       *         *    *    *    *    *       *         *    *    *    *    *    *    *    *    *       * 
    * *  * *  * *  * *  * * *             * *  * *  * *  * *  * * *             * *  * *  * *  * *  * * *             * *  * *  * *  * *  * *  * *  * *  * *  * * *   
