.-------.
| DIAMD |
|       |
|   1   |
|       |
`-------'
.-------.
| GOLD  |
|       |
|   2   |
|       |
`-------'
.-------.
| SILVR |
|       |
|   3   |
|       |
`-------'
.-------.
| CLOTH |
|       |
|   4   |
|       |
`-------'
.-------.
| SPICE |
|       |
|   5   |
|       |
`-------'
.-------.
| LEATH |
|       |
|   6   |
|       |
`-------'
.-------.
| CAMEL |
|       |
|   6   |
|       |
`-------'
    * * * 
  *       *
 *  DIAMD  *
 *   -7-   *
  *       *
    * * *  
    * * * 
  *       *
 *  DIAMD  *
 *   -5-   *
  *       *
    * * *  
    * * * 
  *       *
 *   GOLD  *
 *   -6-   *
  *       *
    * * *  
    * * * 
  *       *
 *   GOLD  *
 *   -5-   *
  *       *
    * * *  
    * * * 
  *       *
 *  SILVR  *
 *   -5-   *
  *       *
    * * *  
    * * * 
  *       *
 *  CLOTH  *
 *   -5-   *
  *       *
    * * *  
    * * * 
  *       *
 *  CLOTH  *
 *   -3-   *
  *       *
    * * *  
    * * * 
  *       *
 *  CLOTH  *
 *   -2-   *
  *       *
    * * *  
    * * * 
  *       *
 *  CLOTH  *
 *   -1-   *
  *       *
    * * *  
    * * * 
  *       *
 *  SPICE  *
 *   -5-   *
  *       *
    * * *  
    * * * 
  *       *
 *  SPICE  *
 *   -3-   *
  *       *
    * * *  
    * * * 
  *       *
 *  SPICE  *
 *   -2-   *
  *       *
    * * *  
    * * * 
  *       *
 *  SPICE  *
 *   -1-   *
  *       *
    * * *  
    * * * 
  *       *
 *  LEATH  *
 *   -4-   *
  *       *
    * * *  
    * * * 
  *       *
 *  LEATH  *
 *   -3-   *
  *       *
    * * *  
    * * * 
  *       *
 *  LEATH  *
 *   -2-   *
  *       *
    * * *  
    * * * 
  *       *
 *  LEATH  *
 *   -1-   *
  *       *
    * * *  
    * * * 
  *       *
 *  CAMEL  *
 *   -5-   *
  *       *
    * * *  
    * * * 
  *  III  *
 *  BONUS  *
 *   -3-   *
  *       *
    * * *  
    * * * 
  *  III  *
 *  BONUS  *
 *   -2-   *
  *       *
    * * *  
    * * * 
  *  III  *
 *  BONUS  *
 *   -1-   *
  *       *
    * * *  
    * * * 
  *  IV   *
 *  BONUS  *
 *   -6-   *
  *       *
    * * *  
    * * * 
  *  IV   *
 *  BONUS  *
 *   -5-   *
  *       *
    * * *  
    * * * 
  *  IV   *
 *  BONUS  *
 *   -4-   *
  *       *
    * * *  
    * * * 
  *   V   *
 *  BONUS  *
 *  -10-   *
  *       *
    * * *  
    * * * 
  *   V   *
 *  BONUS  *
 *   -9-   *
  *       *
    * * *  
    * * * 
  *   V   *
 *  BONUS  *
 *   -8-   *
  *       *
    * * *  
    * * * 
  *       *
 *   SEAL  *
 *         *
  *       *
    * * *  


